<?xml version="1.0" encoding="UTF-8" standalone="no"?>
<!-- Created with Inkscape (http://www.inkscape.org/) -->

<svg
   xmlns:dc="http://purl.org/dc/elements/1.1/"
   xmlns:cc="http://creativecommons.org/ns#"
   xmlns:rdf="http://www.w3.org/1999/02/22-rdf-syntax-ns#"
   xmlns:svg="http://www.w3.org/2000/svg"
   xmlns="http://www.w3.org/2000/svg"
   xmlns:sodipodi="http://sodipodi.sourceforge.net/DTD/sodipodi-0.dtd"
   xmlns:inkscape="http://www.inkscape.org/namespaces/inkscape"
   width="16"
   height="16"
   viewBox="0 0 4.2333333 4.2333333"
   version="1.1"
   id="svg7303"
   inkscape:version="0.92.1 r15371"
   sodipodi:docname="egg_ampl.svg"
   inkscape:export-filename="F:\Projects\TwineHack\projects\hacked\src\tiddler\images\egg_ampl.png"
   inkscape:export-xdpi="96.000008"
   inkscape:export-ydpi="96.000008">
  <defs
     id="defs7297" />
  <sodipodi:namedview
     id="base"
     pagecolor="#ffffff"
     bordercolor="#666666"
     borderopacity="1.0"
     inkscape:pageopacity="0.0"
     inkscape:pageshadow="2"
     inkscape:zoom="22.627417"
     inkscape:cx="-0.035427741"
     inkscape:cy="10.919309"
     inkscape:document-units="mm"
     inkscape:current-layer="layer1"
     showgrid="false"
     units="px"
     inkscape:pagecheckerboard="true"
     inkscape:window-width="1920"
     inkscape:window-height="1018"
     inkscape:window-x="-8"
     inkscape:window-y="-8"
     inkscape:window-maximized="1" />
  <metadata
     id="metadata7300">
    <rdf:RDF>
      <cc:Work
         rdf:about="">
        <dc:format>image/svg+xml</dc:format>
        <dc:type
           rdf:resource="http://purl.org/dc/dcmitype/StillImage" />
        <dc:title />
      </cc:Work>
    </rdf:RDF>
  </metadata>
  <g
     inkscape:label="Layer 1"
     inkscape:groupmode="layer"
     id="layer1"
     transform="translate(0,-292.76667)">
    <path
       style="fill:#000000;fill-opacity:1;stroke:none;stroke-width:1.99999988;stroke-linecap:round;stroke-linejoin:miter;stroke-miterlimit:4;stroke-dasharray:none;stroke-opacity:1"
       d="M 8 1.7246094 A 4.7287761 7.8223683 0 0 0 3.2714844 9.546875 A 4.7287761 4.7287761 0 0 0 5.6347656 13.642578 A 4.7287761 4.7287761 0 0 0 10.365234 13.642578 A 4.7287761 4.7287761 0 0 0 12.728516 9.546875 A 4.7287761 7.8223683 0 0 0 8 1.7246094 z M 6.8046875 4.1113281 L 9.1953125 4.1113281 L 12.076172 11.888672 L 10.060547 11.888672 L 9.5703125 10.470703 L 6.4355469 10.470703 L 5.9394531 11.888672 L 3.9238281 11.888672 L 6.8046875 4.1113281 z M 8.0019531 5.9355469 L 6.9355469 9.0292969 L 9.0644531 9.0292969 L 8.0019531 5.9355469 z "
       transform="matrix(0.26458333,0,0,0.26458333,0,292.76667)"
       id="path7848" />
  </g>
</svg>
