<?xml version="1.0" encoding="UTF-8" standalone="no"?>
<!-- Created with Inkscape (http://www.inkscape.org/) -->

<svg
  xmlns:dc="http://purl.org/dc/elements/1.1/"
  xmlns:cc="http://creativecommons.org/ns#"
  xmlns:rdf="http://www.w3.org/1999/02/22-rdf-syntax-ns#"
  xmlns:svg="http://www.w3.org/2000/svg"
  xmlns="http://www.w3.org/2000/svg"
  xmlns:sodipodi="http://sodipodi.sourceforge.net/DTD/sodipodi-0.dtd"
  xmlns:inkscape="http://www.inkscape.org/namespaces/inkscape"
  width="16"
  height="16"
  viewBox="0 0 4.2333333 4.2333333"
  version="1.1"
  id="svg5236"
  inkscape:version="0.92.2 (5c3e80d, 2017-08-06)"
  sodipodi:docname="locked.svg">
  <style type="text/css">
    <![CDATA[
    circle#outer-ring {
      opacity: 1;
      vector-effect: none;
      fill: #333333;
      fill-opacity: 1;
      fill-rule: evenodd;
      stroke: #b3b3b3;
      stroke-width: 0.37086779;
      stroke-linecap: round;
      stroke-linejoin: round;
      stroke-miterlimit: 4;
      stroke-dasharray: none;
      stroke-dashoffset: 0;
      stroke-opacity: 1;
    }
    path#lock {
      opacity: 1;
      vector-effect: none;
      fill: #b3b3b3;
      fill-opacity: 1;
      fill-rule: evenodd;
      stroke: none;
      stroke-width: 0.33977419;
      stroke-linecap: round;
      stroke-linejoin: round;
      stroke-miterlimit: 4;
      stroke-dasharray: none;
      stroke-dashoffset: 0;
      stroke-opacity: 1;
    }
    ]]>
  </style>
  <defs id="defs5230"/>
  <sodipodi:namedview
    id="base"
    pagecolor="#ffffff"
    bordercolor="#666666"
    borderopacity="1.0"
    inkscape:pageopacity="0.0"
    inkscape:pageshadow="2"
    inkscape:zoom="22.627417"
    inkscape:cx="6.0453081"
    inkscape:cy="10.08855"
    inkscape:document-units="px"
    inkscape:current-layer="layer1"
    showgrid="false"
    inkscape:pagecheckerboard="true"
    units="px"
    inkscape:window-width="1920"
    inkscape:window-height="1018"
    inkscape:window-x="-8"
    inkscape:window-y="-8"
    inkscape:window-maximized="1"/>
  <metadata id="metadata5233">
    <rdf:RDF>
      <cc:Work rdf:about="">
        <dc:format>image/svg+xml</dc:format>
        <dc:type rdf:resource="http://purl.org/dc/dcmitype/StillImage"/>
        <dc:title/>
      </cc:Work>
    </rdf:RDF>
  </metadata>
  <g inkscape:label="Layer 1" inkscape:groupmode="layer" id="layer1" transform="translate(0,-292.76666)">
    <circle id="outer-ring" cx="2.116667" cy="294.88333" r="1.9312328"/>
    <path
      d="m 2.1171092,293.59613 c -0.3365579,1.2e-4 -0.6136285,0.27637 -0.6136285,0.61296 l 2.212e-4,0.42737 h -0.126973 a 0.16990408,0.16990408 0 0 0 -0.1696659,0.16967 v 1.19474 a 0.16990408,0.16990408 0 0 0 0.1696659,0.16966 h 1.4798759 a 0.16990408,0.16990408 0 0 0 0.1696658,-0.16966 v -1.19474 A 0.16990408,0.16990408 0 0 0 2.8566048,294.63646 H 2.729853 v -0.42737 c 0,-0.33659 -0.2759652,-0.61284 -0.6125226,-0.61296 z m 2.212e-4,0.33955 c 0.1530311,0 0.2734121,0.12038 0.2734121,0.27341 v 0.42737 H 1.8549788 l -0.00929,-0.0141 -4.409e-4,-0.42737 c 0.00731,-0.14609 0.1239112,-0.25926 0.2720847,-0.25926 z m -0.2351431,1.06002 h 0.468959 l -0.1621447,0.42981 a 0.1952085,0.1952085 0 0 1 0.1227699,0.18094 0.1952085,0.1952085 0 0 1 -0.1951047,0.19533 0.1952085,0.1952085 0 0 1 -0.1951047,-0.19533 0.1952085,0.1952085 0 0 1 0.12277,-0.18116 z"
      id="lock"
      inkscape:connector-curvature="0"/>
  </g>
</svg>
