<?xml version="1.0" encoding="UTF-8" standalone="no"?>
<!-- Created with Inkscape (http://www.inkscape.org/) -->

<svg
  xmlns:dc="http://purl.org/dc/elements/1.1/"
  xmlns:cc="http://creativecommons.org/ns#"
  xmlns:rdf="http://www.w3.org/1999/02/22-rdf-syntax-ns#"
  xmlns:svg="http://www.w3.org/2000/svg"
  xmlns="http://www.w3.org/2000/svg"
  xmlns:sodipodi="http://sodipodi.sourceforge.net/DTD/sodipodi-0.dtd"
  xmlns:inkscape="http://www.inkscape.org/namespaces/inkscape"
  width="16"
  height="16"
  viewBox="0 0 4.2333333 4.2333333"
  version="1.1"
  id="svg5236"
  inkscape:version="0.92.2 (5c3e80d, 2017-08-06)"
  sodipodi:docname="radio-checked.svg">
  <style type="text/css">
    <![CDATA[
    path#checkmark {
      fill: none;
      fill-rule: evenodd;
      stroke: #ffffff;
      stroke-width: 0.39687499;
      stroke-linecap: round;
      stroke-linejoin: round;
      stroke-miterlimit: 4;
      
      stroke-dasharray: none;
      stroke-opacity:1 transform-origin: 50% 50%;
      stroke-dasharray: 48;
      stroke-dashoffset: 48;
      animation: stroke 0.3s cubic-bezier(0.650, 0.000, 0.450, 1.000) 0.8s forwards;
    }
    @keyframes stroke {
      100% {
        stroke-dashoffset: 0;
      }
    }
    circle#outer-ring {
      opacity: 1;
      vector-effect: none;
      fill: #445500;
      fill-opacity: 1;
      fill-rule: evenodd;
      stroke: #ffffff;
      stroke-width: 0.37086779;
      stroke-linecap: round;
      stroke-linejoin: round;
      stroke-miterlimit: 4;
      stroke-dasharray: none;
      stroke-dashoffset: 0;
      stroke-opacity: 1;
    }

    ]]>
  </style>
  <defs id="defs5230"/>
  <sodipodi:namedview
    id="base"
    pagecolor="#ffffff"
    bordercolor="#666666"
    borderopacity="1.0"
    inkscape:pageopacity="0.0"
    inkscape:pageshadow="2"
    inkscape:zoom="22.627417"
    inkscape:cx="6.0958231"
    inkscape:cy="4.3593346"
    inkscape:document-units="px"
    inkscape:current-layer="layer1"
    showgrid="false"
    inkscape:pagecheckerboard="true"
    units="px"
    inkscape:window-width="1920"
    inkscape:window-height="1018"
    inkscape:window-x="-8"
    inkscape:window-y="-8"
    inkscape:window-maximized="1"/>
  <metadata id="metadata5233">
    <rdf:RDF>
      <cc:Work rdf:about="">
        <dc:format>image/svg+xml</dc:format>
        <dc:type rdf:resource="http://purl.org/dc/dcmitype/StillImage"/>
        <dc:title></dc:title>
      </cc:Work>
    </rdf:RDF>
  </metadata>
  <g inkscape:label="Layer 1" inkscape:groupmode="layer" id="layer1" transform="translate(0,-292.76666)">
    <circle id="outer-ring" cx="2.116667" cy="294.88333" r="1.9312328"/>
    <path d="m 1.265998,294.92818 0.5378799,0.53788 1.1634575,-1.16346" id="checkmark" inkscape:connector-curvature="0"/>
  </g>
</svg>
