<?xml version="1.0" encoding="UTF-8" standalone="no"?><svg xmlns="http://www.w3.org/2000/svg" xmlns:xlink="http://www.w3.org/1999/xlink" contentScriptType="application/ecmascript" contentStyleType="text/css" height="924px" preserveAspectRatio="none" style="width:190px;height:924px;" version="1.1" viewBox="0 0 190 924" width="190px" zoomAndPan="magnify"><defs><filter height="300%" id="f1uwusmj6t2vq8" width="300%" x="-1" y="-1"><feGaussianBlur result="blurOut" stdDeviation="2.0"/><feColorMatrix in="blurOut" result="blurOut2" type="matrix" values="0 0 0 0 0 0 0 0 0 0 0 0 0 0 0 0 0 0 .4 0"/><feOffset dx="4.0" dy="4.0" in="blurOut2" result="blurOut3"/><feBlend in="SourceGraphic" in2="blurOut3" mode="normal"/></filter></defs><g><text fill="#000000" font-family="sans-serif" font-size="18" lengthAdjust="spacingAndGlyphs" textLength="166" x="12.5" y="18.6855">Current Planet Class</text><!--class Planet--><rect fill="#FEFECE" filter="url(#f1uwusmj6t2vq8)" height="510.75" id="Planet" style="stroke: #A80036; stroke-width: 1.5;" width="167" x="6" y="138.6406"/><ellipse cx="67.75" cy="154.6406" fill="#ADD1B2" rx="11" ry="11" style="stroke: #A80036; stroke-width: 1.0;"/><path d="M70.5156,150.5156 Q70.6719,150.2969 70.8594,150.1875 Q71.0469,150.0781 71.2656,150.0781 Q71.6406,150.0781 71.875,150.3359 Q72.1094,150.5938 72.1094,151.2031 L72.1094,152.6563 Q72.1094,153.2656 71.875,153.5313 Q71.6406,153.7969 71.2656,153.7969 Q70.9219,153.7969 70.7188,153.5938 Q70.5156,153.4063 70.4063,152.8906 Q70.3594,152.5313 70.1719,152.3438 Q69.8438,151.9688 69.2344,151.75 Q68.625,151.5313 68,151.5313 Q67.2344,151.5313 66.6016,151.8594 Q65.9688,152.1875 65.4766,152.9375 Q64.9844,153.6875 64.9844,154.7188 L64.9844,155.8125 Q64.9844,157.0469 65.875,157.8672 Q66.7656,158.6875 68.3594,158.6875 Q69.2969,158.6875 69.9531,158.4375 Q70.3438,158.2813 70.7656,157.8438 Q71.0313,157.5781 71.1797,157.5 Q71.3281,157.4219 71.5313,157.4219 Q71.8594,157.4219 72.1172,157.6797 Q72.375,157.9375 72.375,158.2813 Q72.375,158.625 72.0313,159.0313 Q71.5313,159.6094 70.7344,159.9375 Q69.6563,160.3906 68.3594,160.3906 Q66.8438,160.3906 65.6406,159.7656 Q64.6563,159.2656 63.9688,158.1953 Q63.2813,157.125 63.2813,155.8438 L63.2813,154.6875 Q63.2813,153.3594 63.8984,152.2109 Q64.5156,151.0625 65.6094,150.4453 Q66.7031,149.8281 67.9375,149.8281 Q68.6719,149.8281 69.3203,149.9922 Q69.9688,150.1563 70.5156,150.5156 Z "/><text fill="#000000" font-family="sans-serif" font-size="12" lengthAdjust="spacingAndGlyphs" textLength="35" x="88.25" y="159.5508">Planet</text><line style="stroke: #A80036; stroke-width: 1.5;" x1="7" x2="172" y1="170.6406" y2="170.6406"/><ellipse cx="17" cy="200.8945" fill="none" rx="3" ry="3" style="stroke: #038048; stroke-width: 1.0;"/><text fill="#000000" font-family="sans-serif" font-size="11" lengthAdjust="spacingAndGlyphs" textLength="42" x="26" y="203.8955">ID: string</text><ellipse cx="17" cy="214.7305" fill="none" rx="3" ry="3" style="stroke: #038048; stroke-width: 1.0;"/><text fill="#000000" font-family="sans-serif" font-size="11" lengthAdjust="spacingAndGlyphs" textLength="60" x="26" y="217.7314">Name: string</text><ellipse cx="17" cy="228.5664" fill="none" rx="3" ry="3" style="stroke: #038048; stroke-width: 1.0;"/><text fill="#000000" font-family="sans-serif" font-size="11" lengthAdjust="spacingAndGlyphs" textLength="60" x="26" y="231.5674">Class: string</text><ellipse cx="17" cy="242.4023" fill="none" rx="3" ry="3" style="stroke: #038048; stroke-width: 1.0;"/><text fill="#000000" font-family="sans-serif" font-size="11" lengthAdjust="spacingAndGlyphs" textLength="57" x="26" y="245.4033">Type: string</text><ellipse cx="17" cy="256.2383" fill="none" rx="3" ry="3" style="stroke: #038048; stroke-width: 1.0;"/><text fill="#000000" font-family="sans-serif" font-size="11" lengthAdjust="spacingAndGlyphs" textLength="43" x="26" y="259.2393">Flags: int</text><line style="stroke: #A80036; stroke-width: 1.0; stroke-dasharray: 1.0,2.0;" x1="7" x2="70.5" y1="185.5586" y2="185.5586"/><text fill="#000000" font-family="sans-serif" font-size="11" lengthAdjust="spacingAndGlyphs" textLength="38" x="70.5" y="189.5596">General</text><line style="stroke: #A80036; stroke-width: 1.0; stroke-dasharray: 1.0,2.0;" x1="108.5" x2="172" y1="185.5586" y2="185.5586"/><ellipse cx="17" cy="287.9102" fill="none" rx="3" ry="3" style="stroke: #038048; stroke-width: 1.0;"/><text fill="#000000" font-family="sans-serif" font-size="11" lengthAdjust="spacingAndGlyphs" textLength="100" x="26" y="290.9111">SurfaceLiquid: string</text><ellipse cx="17" cy="301.7461" fill="none" rx="3" ry="3" style="stroke: #038048; stroke-width: 1.0;"/><text fill="#000000" font-family="sans-serif" font-size="11" lengthAdjust="spacingAndGlyphs" textLength="94" x="26" y="304.7471">Temperature: string</text><ellipse cx="17" cy="315.582" fill="none" rx="3" ry="3" style="stroke: #038048; stroke-width: 1.0;"/><text fill="#000000" font-family="sans-serif" font-size="11" lengthAdjust="spacingAndGlyphs" textLength="73" x="26" y="318.583">Humidity: string</text><ellipse cx="17" cy="329.418" fill="none" rx="3" ry="3" style="stroke: #038048; stroke-width: 1.0;"/><text fill="#000000" font-family="sans-serif" font-size="11" lengthAdjust="spacingAndGlyphs" textLength="92" x="26" y="332.4189">Atmosphere: string</text><ellipse cx="17" cy="343.2539" fill="none" rx="3" ry="3" style="stroke: #038048; stroke-width: 1.0;"/><text fill="#000000" font-family="sans-serif" font-size="11" lengthAdjust="spacingAndGlyphs" textLength="118" x="26" y="346.2549">PopulationDensity: string</text><line style="stroke: #A80036; stroke-width: 1.0; stroke-dasharray: 1.0,2.0;" x1="7" x2="65" y1="272.5742" y2="272.5742"/><text fill="#000000" font-family="sans-serif" font-size="11" lengthAdjust="spacingAndGlyphs" textLength="49" x="65" y="276.5752">Properties</text><line style="stroke: #A80036; stroke-width: 1.0; stroke-dasharray: 1.0,2.0;" x1="114" x2="172" y1="272.5742" y2="272.5742"/><ellipse cx="17" cy="374.9258" fill="none" rx="3" ry="3" style="stroke: #038048; stroke-width: 1.0;"/><text fill="#000000" font-family="sans-serif" font-size="11" lengthAdjust="spacingAndGlyphs" textLength="81" x="26" y="377.9268">Ambience: string</text><ellipse cx="17" cy="388.7617" fill="none" rx="3" ry="3" style="stroke: #038048; stroke-width: 1.0;"/><text fill="#000000" font-family="sans-serif" font-size="11" lengthAdjust="spacingAndGlyphs" textLength="81" x="26" y="391.7627">AmbientRads: int</text><ellipse cx="17" cy="402.5977" fill="none" rx="3" ry="3" style="stroke: #038048; stroke-width: 1.0;"/><text fill="#000000" font-family="sans-serif" font-size="11" lengthAdjust="spacingAndGlyphs" textLength="101" x="26" y="405.5986">AmbientMiraRads: int</text><ellipse cx="17" cy="416.4336" fill="none" rx="3" ry="3" style="stroke: #038048; stroke-width: 1.0;"/><text fill="#000000" font-family="sans-serif" font-size="11" lengthAdjust="spacingAndGlyphs" textLength="67" x="26" y="419.4346">Corruption: int</text><line style="stroke: #A80036; stroke-width: 1.0; stroke-dasharray: 1.0,2.0;" x1="7" x2="69" y1="359.5898" y2="359.5898"/><text fill="#000000" font-family="sans-serif" font-size="11" lengthAdjust="spacingAndGlyphs" textLength="41" x="69" y="363.5908">Dangers</text><line style="stroke: #A80036; stroke-width: 1.0; stroke-dasharray: 1.0,2.0;" x1="110" x2="172" y1="359.5898" y2="359.5898"/><ellipse cx="17" cy="448.1055" fill="none" rx="3" ry="3" style="stroke: #038048; stroke-width: 1.0;"/><text fill="#000000" font-family="sans-serif" font-size="11" lengthAdjust="spacingAndGlyphs" textLength="80" x="26" y="451.1064">CoreType: string</text><ellipse cx="17" cy="461.9414" fill="none" rx="3" ry="3" style="stroke: #038048; stroke-width: 1.0;"/><text fill="#000000" font-family="sans-serif" font-size="11" lengthAdjust="spacingAndGlyphs" textLength="78" x="26" y="464.9424">CoreFluid: string</text><line style="stroke: #A80036; stroke-width: 1.0; stroke-dasharray: 1.0,2.0;" x1="7" x2="78" y1="432.7695" y2="432.7695"/><text fill="#000000" font-family="sans-serif" font-size="11" lengthAdjust="spacingAndGlyphs" textLength="23" x="78" y="436.7705">Core</text><line style="stroke: #A80036; stroke-width: 1.0; stroke-dasharray: 1.0,2.0;" x1="101" x2="172" y1="432.7695" y2="432.7695"/><ellipse cx="17" cy="493.6133" fill="none" rx="3" ry="3" style="stroke: #038048; stroke-width: 1.0;"/><text fill="#000000" font-family="sans-serif" font-size="11" lengthAdjust="spacingAndGlyphs" textLength="98" x="26" y="496.6143">MajorDenizen: string</text><ellipse cx="17" cy="507.4492" fill="none" rx="3" ry="3" style="stroke: #038048; stroke-width: 1.0;"/><text fill="#000000" font-family="sans-serif" font-size="11" lengthAdjust="spacingAndGlyphs" textLength="110" x="26" y="510.4502">MinorDenizens: string[]</text><line style="stroke: #A80036; stroke-width: 1.0; stroke-dasharray: 1.0,2.0;" x1="7" x2="67" y1="478.2773" y2="478.2773"/><text fill="#000000" font-family="sans-serif" font-size="11" lengthAdjust="spacingAndGlyphs" textLength="45" x="67" y="482.2783">Denizens</text><line style="stroke: #A80036; stroke-width: 1.0; stroke-dasharray: 1.0,2.0;" x1="112" x2="172" y1="478.2773" y2="478.2773"/><ellipse cx="17" cy="539.1211" fill="none" rx="3" ry="3" style="stroke: #038048; stroke-width: 1.0;"/><text fill="#000000" font-family="sans-serif" font-size="11" lengthAdjust="spacingAndGlyphs" textLength="60" x="26" y="542.1221">Blood: string</text><ellipse cx="17" cy="552.957" fill="none" rx="3" ry="3" style="stroke: #038048; stroke-width: 1.0;"/><text fill="#000000" font-family="sans-serif" font-size="11" lengthAdjust="spacingAndGlyphs" textLength="85" x="26" y="555.958">LivingType: string</text><line style="stroke: #A80036; stroke-width: 1.0; stroke-dasharray: 1.0,2.0;" x1="7" x2="59.5" y1="523.7852" y2="523.7852"/><text fill="#000000" font-family="sans-serif" font-size="11" lengthAdjust="spacingAndGlyphs" textLength="60" x="59.5" y="527.7861">Living Planet</text><line style="stroke: #A80036; stroke-width: 1.0; stroke-dasharray: 1.0,2.0;" x1="119.5" x2="172" y1="523.7852" y2="523.7852"/><ellipse cx="17" cy="584.6289" fill="#84BE84" rx="3" ry="3" style="stroke: #038048; stroke-width: 1.0;"/><text fill="#000000" font-family="sans-serif" font-size="11" lengthAdjust="spacingAndGlyphs" textLength="83" x="26" y="587.6299">RollNewID(): void</text><ellipse cx="17" cy="598.4648" fill="#84BE84" rx="3" ry="3" style="stroke: #038048; stroke-width: 1.0;"/><text fill="#000000" font-family="sans-serif" font-size="11" lengthAdjust="spacingAndGlyphs" textLength="100" x="26" y="601.4658">PostGenerate(): void</text><ellipse cx="17" cy="612.3008" fill="#84BE84" rx="3" ry="3" style="stroke: #038048; stroke-width: 1.0;"/><text fill="#000000" font-family="sans-serif" font-size="11" lengthAdjust="spacingAndGlyphs" textLength="113" x="26" y="615.3018">RollForDenizen(): string</text><ellipse cx="17" cy="626.1367" fill="#84BE84" rx="3" ry="3" style="stroke: #038048; stroke-width: 1.0;"/><text fill="#000000" font-family="sans-serif" font-size="11" lengthAdjust="spacingAndGlyphs" textLength="141" x="26" y="629.1377">RollForAmbientEffects(): void</text><ellipse cx="17" cy="639.9727" fill="#84BE84" rx="3" ry="3" style="stroke: #038048; stroke-width: 1.0;"/><text fill="#000000" font-family="sans-serif" font-size="11" lengthAdjust="spacingAndGlyphs" textLength="121" x="26" y="642.9736">EZPopulate(string[]): void</text><line style="stroke: #A80036; stroke-width: 1.0; stroke-dasharray: 1.0,2.0;" x1="7" x2="69" y1="569.293" y2="569.293"/><text fill="#000000" font-family="sans-serif" font-size="11" lengthAdjust="spacingAndGlyphs" textLength="41" x="69" y="573.2939">Methods</text><line style="stroke: #A80036; stroke-width: 1.0; stroke-dasharray: 1.0,2.0;" x1="110" x2="172" y1="569.293" y2="569.293"/><!--class GameObject--><rect fill="#FEFECE" filter="url(#f1uwusmj6t2vq8)" height="48" id="GameObject" style="stroke: #A80036; stroke-width: 1.5;" width="101" x="39" y="30.6406"/><ellipse cx="54" cy="46.6406" fill="#ADD1B2" rx="11" ry="11" style="stroke: #A80036; stroke-width: 1.0;"/><path d="M56.7656,42.5156 Q56.9219,42.2969 57.1094,42.1875 Q57.2969,42.0781 57.5156,42.0781 Q57.8906,42.0781 58.125,42.3359 Q58.3594,42.5938 58.3594,43.2031 L58.3594,44.6563 Q58.3594,45.2656 58.125,45.5313 Q57.8906,45.7969 57.5156,45.7969 Q57.1719,45.7969 56.9688,45.5938 Q56.7656,45.4063 56.6563,44.8906 Q56.6094,44.5313 56.4219,44.3438 Q56.0938,43.9688 55.4844,43.75 Q54.875,43.5313 54.25,43.5313 Q53.4844,43.5313 52.8516,43.8594 Q52.2188,44.1875 51.7266,44.9375 Q51.2344,45.6875 51.2344,46.7188 L51.2344,47.8125 Q51.2344,49.0469 52.125,49.8672 Q53.0156,50.6875 54.6094,50.6875 Q55.5469,50.6875 56.2031,50.4375 Q56.5938,50.2813 57.0156,49.8438 Q57.2813,49.5781 57.4297,49.5 Q57.5781,49.4219 57.7813,49.4219 Q58.1094,49.4219 58.3672,49.6797 Q58.625,49.9375 58.625,50.2813 Q58.625,50.625 58.2813,51.0313 Q57.7813,51.6094 56.9844,51.9375 Q55.9063,52.3906 54.6094,52.3906 Q53.0938,52.3906 51.8906,51.7656 Q50.9063,51.2656 50.2188,50.1953 Q49.5313,49.125 49.5313,47.8438 L49.5313,46.6875 Q49.5313,45.3594 50.1484,44.2109 Q50.7656,43.0625 51.8594,42.4453 Q52.9531,41.8281 54.1875,41.8281 Q54.9219,41.8281 55.5703,41.9922 Q56.2188,42.1563 56.7656,42.5156 Z "/><text fill="#000000" font-family="sans-serif" font-size="12" lengthAdjust="spacingAndGlyphs" textLength="69" x="68" y="51.5508">GameObject</text><line style="stroke: #A80036; stroke-width: 1.5;" x1="40" x2="139" y1="62.6406" y2="62.6406"/><line style="stroke: #A80036; stroke-width: 1.5;" x1="40" x2="139" y1="70.6406" y2="70.6406"/><!--class LivingPlanet--><rect fill="#FEFECE" filter="url(#f1uwusmj6t2vq8)" height="204.1953" id="LivingPlanet" style="stroke: #A80036; stroke-width: 1.5;" width="117" x="31" y="709.6406"/><ellipse cx="54.1" cy="725.6406" fill="#ADD1B2" rx="11" ry="11" style="stroke: #A80036; stroke-width: 1.0;"/><path d="M56.8656,721.5156 Q57.0219,721.2969 57.2094,721.1875 Q57.3969,721.0781 57.6156,721.0781 Q57.9906,721.0781 58.225,721.3359 Q58.4594,721.5938 58.4594,722.2031 L58.4594,723.6563 Q58.4594,724.2656 58.225,724.5313 Q57.9906,724.7969 57.6156,724.7969 Q57.2719,724.7969 57.0688,724.5938 Q56.8656,724.4063 56.7563,723.8906 Q56.7094,723.5313 56.5219,723.3438 Q56.1938,722.9688 55.5844,722.75 Q54.975,722.5313 54.35,722.5313 Q53.5844,722.5313 52.9516,722.8594 Q52.3188,723.1875 51.8266,723.9375 Q51.3344,724.6875 51.3344,725.7188 L51.3344,726.8125 Q51.3344,728.0469 52.225,728.8672 Q53.1156,729.6875 54.7094,729.6875 Q55.6469,729.6875 56.3031,729.4375 Q56.6938,729.2813 57.1156,728.8438 Q57.3813,728.5781 57.5297,728.5 Q57.6781,728.4219 57.8813,728.4219 Q58.2094,728.4219 58.4672,728.6797 Q58.725,728.9375 58.725,729.2813 Q58.725,729.625 58.3813,730.0313 Q57.8813,730.6094 57.0844,730.9375 Q56.0063,731.3906 54.7094,731.3906 Q53.1938,731.3906 51.9906,730.7656 Q51.0063,730.2656 50.3188,729.1953 Q49.6313,728.125 49.6313,726.8438 L49.6313,725.6875 Q49.6313,724.3594 50.2484,723.2109 Q50.8656,722.0625 51.9594,721.4453 Q53.0531,720.8281 54.2875,720.8281 Q55.0219,720.8281 55.6703,720.9922 Q56.3188,721.1563 56.8656,721.5156 Z "/><text fill="#000000" font-family="sans-serif" font-size="12" lengthAdjust="spacingAndGlyphs" textLength="67" x="69.9" y="730.5508">LivingPlanet</text><line style="stroke: #A80036; stroke-width: 1.5;" x1="32" x2="147" y1="741.6406" y2="741.6406"/><ellipse cx="42" cy="771.8945" fill="none" rx="3" ry="3" style="stroke: #038048; stroke-width: 1.0;"/><text fill="#000000" font-family="sans-serif" font-size="11" lengthAdjust="spacingAndGlyphs" textLength="45" x="51" y="774.8955">Stage: int</text><ellipse cx="42" cy="785.7305" fill="none" rx="3" ry="3" style="stroke: #038048; stroke-width: 1.0;"/><text fill="#000000" font-family="sans-serif" font-size="11" lengthAdjust="spacingAndGlyphs" textLength="63" x="51" y="788.7314">Phase: string</text><ellipse cx="42" cy="799.5664" fill="none" rx="3" ry="3" style="stroke: #038048; stroke-width: 1.0;"/><text fill="#000000" font-family="sans-serif" font-size="11" lengthAdjust="spacingAndGlyphs" textLength="40" x="51" y="802.5674">Girth: int</text><line style="stroke: #A80036; stroke-width: 1.0; stroke-dasharray: 1.0,2.0;" x1="32" x2="76" y1="756.5586" y2="756.5586"/><text fill="#000000" font-family="sans-serif" font-size="11" lengthAdjust="spacingAndGlyphs" textLength="27" x="76" y="760.5596">Basic</text><line style="stroke: #A80036; stroke-width: 1.0; stroke-dasharray: 1.0,2.0;" x1="103" x2="147" y1="756.5586" y2="756.5586"/><ellipse cx="42" cy="831.2383" fill="none" rx="3" ry="3" style="stroke: #038048; stroke-width: 1.0;"/><text fill="#000000" font-family="sans-serif" font-size="11" lengthAdjust="spacingAndGlyphs" textLength="59" x="51" y="834.2393">Denizens: {}</text><ellipse cx="42" cy="845.0742" fill="none" rx="3" ry="3" style="stroke: #038048; stroke-width: 1.0;"/><text fill="#000000" font-family="sans-serif" font-size="11" lengthAdjust="spacingAndGlyphs" textLength="67" x="51" y="848.0752">Resources: {}</text><line style="stroke: #A80036; stroke-width: 1.0; stroke-dasharray: 1.0,2.0;" x1="32" x2="63.5" y1="815.9023" y2="815.9023"/><text fill="#000000" font-family="sans-serif" font-size="11" lengthAdjust="spacingAndGlyphs" textLength="52" x="63.5" y="819.9033">Collections</text><line style="stroke: #A80036; stroke-width: 1.0; stroke-dasharray: 1.0,2.0;" x1="115.5" x2="147" y1="815.9023" y2="815.9023"/><ellipse cx="42" cy="876.7461" fill="#84BE84" rx="3" ry="3" style="stroke: #038048; stroke-width: 1.0;"/><text fill="#000000" font-family="sans-serif" font-size="11" lengthAdjust="spacingAndGlyphs" textLength="91" x="51" y="879.7471">GetPopulation(): int</text><ellipse cx="42" cy="890.582" fill="#84BE84" rx="3" ry="3" style="stroke: #038048; stroke-width: 1.0;"/><text fill="#000000" font-family="sans-serif" font-size="11" lengthAdjust="spacingAndGlyphs" textLength="81" x="51" y="893.583">GetCivilians(): int</text><ellipse cx="42" cy="904.418" fill="#84BE84" rx="3" ry="3" style="stroke: #038048; stroke-width: 1.0;"/><text fill="#000000" font-family="sans-serif" font-size="11" lengthAdjust="spacingAndGlyphs" textLength="63" x="51" y="907.4189">GetSize(): int</text><line style="stroke: #A80036; stroke-width: 1.0; stroke-dasharray: 1.0,2.0;" x1="32" x2="69" y1="861.4102" y2="861.4102"/><text fill="#000000" font-family="sans-serif" font-size="11" lengthAdjust="spacingAndGlyphs" textLength="41" x="69" y="865.4111">Methods</text><line style="stroke: #A80036; stroke-width: 1.0; stroke-dasharray: 1.0,2.0;" x1="110" x2="147" y1="861.4102" y2="861.4102"/><!--link GameObject to Planet--><path d="M89.5,99.1596 C89.5,110.6536 89.5,123.9186 89.5,138.3276 " fill="none" id="GameObject-Planet" style="stroke: #A80036; stroke-width: 1.0;"/><polygon fill="none" points="82.5001,98.8386,89.5,78.8386,96.5001,98.8386,82.5001,98.8386" style="stroke: #A80036; stroke-width: 1.0;"/><!--link Planet to LivingPlanet--><path d="M89.5,669.9876 C89.5,683.6456 89.5,696.8686 89.5,709.3856 " fill="none" id="Planet-LivingPlanet" style="stroke: #A80036; stroke-width: 1.0;"/><polygon fill="none" points="82.5001,669.7006,89.5,649.7006,96.5001,669.7006,82.5001,669.7006" style="stroke: #A80036; stroke-width: 1.0;"/><!--
@startuml

title Current Planet Class

skinparam componentStyle uml2

class Planet extends GameObject {
.. General ..
+ ID: string
+ Name: string
+ Class: string
+ Type: string
+ Flags: int
.. Properties ..
+ SurfaceLiquid: string
+ Temperature: string
+ Humidity: string
+ Atmosphere: string
+ PopulationDensity: string
.. Dangers ..
+ Ambience: string
+ AmbientRads: int
+ AmbientMiraRads: int
+ Corruption: int
.. Core ..
+ CoreType: string
+ CoreFluid: string
.. Denizens ..
+ MajorDenizen: string
+ MinorDenizens: string[]
.. Living Planet ..
+ Blood: string
+ LivingType: string
.. Methods ..
+ RollNewID(): void
+ PostGenerate(): void
+ RollForDenizen(): string
+ RollForAmbientEffects(): void
+ EZPopulate(string[]): void
}

class LivingPlanet extends Planet {
.. Basic ..
+ Stage: int
+ Phase: string
+ Girth: int
.. Collections ..
+ Denizens: {}
+ Resources: {}
.. Methods ..
+ GetPopulation(): int
+ GetCivilians(): int
+ GetSize(): int
}
@enduml

PlantUML version 1.2017.19(Sun Nov 12 03:46:22 PST 2017)
(MIT source distribution)
Java Runtime: Java(TM) SE Runtime Environment
JVM: Java HotSpot(TM) 64-Bit Server VM
Java Version: 1.8.0_151-b12
Operating System: Windows 7
OS Version: 6.1
Default Encoding: Cp1252
Language: en
Country: US
--></g></svg>